%!PS-Adobe-2.0 EPSF-2.0
%%Title: sin-plot.eps
%%Creator: gnuplot 4.0 patchlevel 0
%%CreationDate: Thu Jan 12 18:58:00 2006
%%DocumentFonts: (atend)
%%BoundingBox: 50 50 590 428
%%Orientation: Portrait
%%EndComments
/gnudict 256 dict def
gnudict begin
/Color true def
/Solid true def
/gnulinewidth 5.000 def
/userlinewidth gnulinewidth def
/vshift -80 def
/dl {10.0 mul} def
/hpt_ 31.5 def
/vpt_ 31.5 def
/hpt hpt_ def
/vpt vpt_ def
/Rounded false def
/M {moveto} bind def
/L {lineto} bind def
/R {rmoveto} bind def
/V {rlineto} bind def
/N {newpath moveto} bind def
/C {setrgbcolor} bind def
/f {rlineto fill} bind def
/vpt2 vpt 2 mul def
/hpt2 hpt 2 mul def
/Lshow { currentpoint stroke M
  0 vshift R show } def
/Rshow { currentpoint stroke M
  dup stringwidth pop neg vshift R show } def
/Cshow { currentpoint stroke M
  dup stringwidth pop -2 div vshift R show } def
/UP { dup vpt_ mul /vpt exch def hpt_ mul /hpt exch def
  /hpt2 hpt 2 mul def /vpt2 vpt 2 mul def } def
/DL { Color {setrgbcolor Solid {pop []} if 0 setdash }
 {pop pop pop 0 setgray Solid {pop []} if 0 setdash} ifelse } def
/BL { stroke userlinewidth 2 mul setlinewidth
      Rounded { 1 setlinejoin 1 setlinecap } if } def
/AL { stroke userlinewidth 2 div setlinewidth
      Rounded { 1 setlinejoin 1 setlinecap } if } def
/UL { dup gnulinewidth mul /userlinewidth exch def
      dup 1 lt {pop 1} if 10 mul /udl exch def } def
/PL { stroke userlinewidth setlinewidth
      Rounded { 1 setlinejoin 1 setlinecap } if } def
/LTw { PL [] 1 setgray } def
/LTb { BL [] 0 0 0 DL } def
/LTa { AL [1 udl mul 2 udl mul] 0 setdash 0 0 0 setrgbcolor } def
/LT0 { PL [] 1 0 0 DL } def
/LT1 { PL [4 dl 2 dl] 0 1 0 DL } def
/LT2 { PL [2 dl 3 dl] 0 0 1 DL } def
/LT3 { PL [1 dl 1.5 dl] 1 0 1 DL } def
/LT4 { PL [5 dl 2 dl 1 dl 2 dl] 0 1 1 DL } def
/LT5 { PL [4 dl 3 dl 1 dl 3 dl] 1 1 0 DL } def
/LT6 { PL [2 dl 2 dl 2 dl 4 dl] 0 0 0 DL } def
/LT7 { PL [2 dl 2 dl 2 dl 2 dl 2 dl 4 dl] 1 0.3 0 DL } def
/LT8 { PL [2 dl 2 dl 2 dl 2 dl 2 dl 2 dl 2 dl 4 dl] 0.5 0.5 0.5 DL } def
/Pnt { stroke [] 0 setdash
   gsave 1 setlinecap M 0 0 V stroke grestore } def
/Dia { stroke [] 0 setdash 2 copy vpt add M
  hpt neg vpt neg V hpt vpt neg V
  hpt vpt V hpt neg vpt V closepath stroke
  Pnt } def
/Pls { stroke [] 0 setdash vpt sub M 0 vpt2 V
  currentpoint stroke M
  hpt neg vpt neg R hpt2 0 V stroke
  } def
/Box { stroke [] 0 setdash 2 copy exch hpt sub exch vpt add M
  0 vpt2 neg V hpt2 0 V 0 vpt2 V
  hpt2 neg 0 V closepath stroke
  Pnt } def
/Crs { stroke [] 0 setdash exch hpt sub exch vpt add M
  hpt2 vpt2 neg V currentpoint stroke M
  hpt2 neg 0 R hpt2 vpt2 V stroke } def
/TriU { stroke [] 0 setdash 2 copy vpt 1.12 mul add M
  hpt neg vpt -1.62 mul V
  hpt 2 mul 0 V
  hpt neg vpt 1.62 mul V closepath stroke
  Pnt  } def
/Star { 2 copy Pls Crs } def
/BoxF { stroke [] 0 setdash exch hpt sub exch vpt add M
  0 vpt2 neg V  hpt2 0 V  0 vpt2 V
  hpt2 neg 0 V  closepath fill } def
/TriUF { stroke [] 0 setdash vpt 1.12 mul add M
  hpt neg vpt -1.62 mul V
  hpt 2 mul 0 V
  hpt neg vpt 1.62 mul V closepath fill } def
/TriD { stroke [] 0 setdash 2 copy vpt 1.12 mul sub M
  hpt neg vpt 1.62 mul V
  hpt 2 mul 0 V
  hpt neg vpt -1.62 mul V closepath stroke
  Pnt  } def
/TriDF { stroke [] 0 setdash vpt 1.12 mul sub M
  hpt neg vpt 1.62 mul V
  hpt 2 mul 0 V
  hpt neg vpt -1.62 mul V closepath fill} def
/DiaF { stroke [] 0 setdash vpt add M
  hpt neg vpt neg V hpt vpt neg V
  hpt vpt V hpt neg vpt V closepath fill } def
/Pent { stroke [] 0 setdash 2 copy gsave
  translate 0 hpt M 4 {72 rotate 0 hpt L} repeat
  closepath stroke grestore Pnt } def
/PentF { stroke [] 0 setdash gsave
  translate 0 hpt M 4 {72 rotate 0 hpt L} repeat
  closepath fill grestore } def
/Circle { stroke [] 0 setdash 2 copy
  hpt 0 360 arc stroke Pnt } def
/CircleF { stroke [] 0 setdash hpt 0 360 arc fill } def
/C0 { BL [] 0 setdash 2 copy moveto vpt 90 450  arc } bind def
/C1 { BL [] 0 setdash 2 copy        moveto
       2 copy  vpt 0 90 arc closepath fill
               vpt 0 360 arc closepath } bind def
/C2 { BL [] 0 setdash 2 copy moveto
       2 copy  vpt 90 180 arc closepath fill
               vpt 0 360 arc closepath } bind def
/C3 { BL [] 0 setdash 2 copy moveto
       2 copy  vpt 0 180 arc closepath fill
               vpt 0 360 arc closepath } bind def
/C4 { BL [] 0 setdash 2 copy moveto
       2 copy  vpt 180 270 arc closepath fill
               vpt 0 360 arc closepath } bind def
/C5 { BL [] 0 setdash 2 copy moveto
       2 copy  vpt 0 90 arc
       2 copy moveto
       2 copy  vpt 180 270 arc closepath fill
               vpt 0 360 arc } bind def
/C6 { BL [] 0 setdash 2 copy moveto
      2 copy  vpt 90 270 arc closepath fill
              vpt 0 360 arc closepath } bind def
/C7 { BL [] 0 setdash 2 copy moveto
      2 copy  vpt 0 270 arc closepath fill
              vpt 0 360 arc closepath } bind def
/C8 { BL [] 0 setdash 2 copy moveto
      2 copy vpt 270 360 arc closepath fill
              vpt 0 360 arc closepath } bind def
/C9 { BL [] 0 setdash 2 copy moveto
      2 copy  vpt 270 450 arc closepath fill
              vpt 0 360 arc closepath } bind def
/C10 { BL [] 0 setdash 2 copy 2 copy moveto vpt 270 360 arc closepath fill
       2 copy moveto
       2 copy vpt 90 180 arc closepath fill
               vpt 0 360 arc closepath } bind def
/C11 { BL [] 0 setdash 2 copy moveto
       2 copy  vpt 0 180 arc closepath fill
       2 copy moveto
       2 copy  vpt 270 360 arc closepath fill
               vpt 0 360 arc closepath } bind def
/C12 { BL [] 0 setdash 2 copy moveto
       2 copy  vpt 180 360 arc closepath fill
               vpt 0 360 arc closepath } bind def
/C13 { BL [] 0 setdash  2 copy moveto
       2 copy  vpt 0 90 arc closepath fill
       2 copy moveto
       2 copy  vpt 180 360 arc closepath fill
               vpt 0 360 arc closepath } bind def
/C14 { BL [] 0 setdash 2 copy moveto
       2 copy  vpt 90 360 arc closepath fill
               vpt 0 360 arc } bind def
/C15 { BL [] 0 setdash 2 copy vpt 0 360 arc closepath fill
               vpt 0 360 arc closepath } bind def
/Rec   { newpath 4 2 roll moveto 1 index 0 rlineto 0 exch rlineto
       neg 0 rlineto closepath } bind def
/Square { dup Rec } bind def
/Bsquare { vpt sub exch vpt sub exch vpt2 Square } bind def
/S0 { BL [] 0 setdash 2 copy moveto 0 vpt rlineto BL Bsquare } bind def
/S1 { BL [] 0 setdash 2 copy vpt Square fill Bsquare } bind def
/S2 { BL [] 0 setdash 2 copy exch vpt sub exch vpt Square fill Bsquare } bind def
/S3 { BL [] 0 setdash 2 copy exch vpt sub exch vpt2 vpt Rec fill Bsquare } bind def
/S4 { BL [] 0 setdash 2 copy exch vpt sub exch vpt sub vpt Square fill Bsquare } bind def
/S5 { BL [] 0 setdash 2 copy 2 copy vpt Square fill
       exch vpt sub exch vpt sub vpt Square fill Bsquare } bind def
/S6 { BL [] 0 setdash 2 copy exch vpt sub exch vpt sub vpt vpt2 Rec fill Bsquare } bind def
/S7 { BL [] 0 setdash 2 copy exch vpt sub exch vpt sub vpt vpt2 Rec fill
       2 copy vpt Square fill
       Bsquare } bind def
/S8 { BL [] 0 setdash 2 copy vpt sub vpt Square fill Bsquare } bind def
/S9 { BL [] 0 setdash 2 copy vpt sub vpt vpt2 Rec fill Bsquare } bind def
/S10 { BL [] 0 setdash 2 copy vpt sub vpt Square fill 2 copy exch vpt sub exch vpt Square fill
       Bsquare } bind def
/S11 { BL [] 0 setdash 2 copy vpt sub vpt Square fill 2 copy exch vpt sub exch vpt2 vpt Rec fill
       Bsquare } bind def
/S12 { BL [] 0 setdash 2 copy exch vpt sub exch vpt sub vpt2 vpt Rec fill Bsquare } bind def
/S13 { BL [] 0 setdash 2 copy exch vpt sub exch vpt sub vpt2 vpt Rec fill
       2 copy vpt Square fill Bsquare } bind def
/S14 { BL [] 0 setdash 2 copy exch vpt sub exch vpt sub vpt2 vpt Rec fill
       2 copy exch vpt sub exch vpt Square fill Bsquare } bind def
/S15 { BL [] 0 setdash 2 copy Bsquare fill Bsquare } bind def
/D0 { gsave translate 45 rotate 0 0 S0 stroke grestore } bind def
/D1 { gsave translate 45 rotate 0 0 S1 stroke grestore } bind def
/D2 { gsave translate 45 rotate 0 0 S2 stroke grestore } bind def
/D3 { gsave translate 45 rotate 0 0 S3 stroke grestore } bind def
/D4 { gsave translate 45 rotate 0 0 S4 stroke grestore } bind def
/D5 { gsave translate 45 rotate 0 0 S5 stroke grestore } bind def
/D6 { gsave translate 45 rotate 0 0 S6 stroke grestore } bind def
/D7 { gsave translate 45 rotate 0 0 S7 stroke grestore } bind def
/D8 { gsave translate 45 rotate 0 0 S8 stroke grestore } bind def
/D9 { gsave translate 45 rotate 0 0 S9 stroke grestore } bind def
/D10 { gsave translate 45 rotate 0 0 S10 stroke grestore } bind def
/D11 { gsave translate 45 rotate 0 0 S11 stroke grestore } bind def
/D12 { gsave translate 45 rotate 0 0 S12 stroke grestore } bind def
/D13 { gsave translate 45 rotate 0 0 S13 stroke grestore } bind def
/D14 { gsave translate 45 rotate 0 0 S14 stroke grestore } bind def
/D15 { gsave translate 45 rotate 0 0 S15 stroke grestore } bind def
/DiaE { stroke [] 0 setdash vpt add M
  hpt neg vpt neg V hpt vpt neg V
  hpt vpt V hpt neg vpt V closepath stroke } def
/BoxE { stroke [] 0 setdash exch hpt sub exch vpt add M
  0 vpt2 neg V hpt2 0 V 0 vpt2 V
  hpt2 neg 0 V closepath stroke } def
/TriUE { stroke [] 0 setdash vpt 1.12 mul add M
  hpt neg vpt -1.62 mul V
  hpt 2 mul 0 V
  hpt neg vpt 1.62 mul V closepath stroke } def
/TriDE { stroke [] 0 setdash vpt 1.12 mul sub M
  hpt neg vpt 1.62 mul V
  hpt 2 mul 0 V
  hpt neg vpt -1.62 mul V closepath stroke } def
/PentE { stroke [] 0 setdash gsave
  translate 0 hpt M 4 {72 rotate 0 hpt L} repeat
  closepath stroke grestore } def
/CircE { stroke [] 0 setdash 
  hpt 0 360 arc stroke } def
/Opaque { gsave closepath 1 setgray fill grestore 0 setgray closepath } def
/DiaW { stroke [] 0 setdash vpt add M
  hpt neg vpt neg V hpt vpt neg V
  hpt vpt V hpt neg vpt V Opaque stroke } def
/BoxW { stroke [] 0 setdash exch hpt sub exch vpt add M
  0 vpt2 neg V hpt2 0 V 0 vpt2 V
  hpt2 neg 0 V Opaque stroke } def
/TriUW { stroke [] 0 setdash vpt 1.12 mul add M
  hpt neg vpt -1.62 mul V
  hpt 2 mul 0 V
  hpt neg vpt 1.62 mul V Opaque stroke } def
/TriDW { stroke [] 0 setdash vpt 1.12 mul sub M
  hpt neg vpt 1.62 mul V
  hpt 2 mul 0 V
  hpt neg vpt -1.62 mul V Opaque stroke } def
/PentW { stroke [] 0 setdash gsave
  translate 0 hpt M 4 {72 rotate 0 hpt L} repeat
  Opaque stroke grestore } def
/CircW { stroke [] 0 setdash 
  hpt 0 360 arc Opaque stroke } def
/BoxFill { gsave Rec 1 setgray fill grestore } def
/BoxColFill {
  gsave Rec
  /Fillden exch def
  currentrgbcolor
  /ColB exch def /ColG exch def /ColR exch def
  /ColR ColR Fillden mul Fillden sub 1 add def
  /ColG ColG Fillden mul Fillden sub 1 add def
  /ColB ColB Fillden mul Fillden sub 1 add def
  ColR ColG ColB setrgbcolor
  fill grestore } def
%
% PostScript Level 1 Pattern Fill routine
% Usage: x y w h s a XX PatternFill
%	x,y = lower left corner of box to be filled
%	w,h = width and height of box
%	  a = angle in degrees between lines and x-axis
%	 XX = 0/1 for no/yes cross-hatch
%
/PatternFill { gsave /PFa [ 9 2 roll ] def
    PFa 0 get PFa 2 get 2 div add PFa 1 get PFa 3 get 2 div add translate
    PFa 2 get -2 div PFa 3 get -2 div PFa 2 get PFa 3 get Rec
    gsave 1 setgray fill grestore clip
    currentlinewidth 0.5 mul setlinewidth
    /PFs PFa 2 get dup mul PFa 3 get dup mul add sqrt def
    0 0 M PFa 5 get rotate PFs -2 div dup translate
	0 1 PFs PFa 4 get div 1 add floor cvi
	{ PFa 4 get mul 0 M 0 PFs V } for
    0 PFa 6 get ne {
	0 1 PFs PFa 4 get div 1 add floor cvi
	{ PFa 4 get mul 0 2 1 roll M PFs 0 V } for
    } if
    stroke grestore } def
%
/Symbol-Oblique /Symbol findfont [1 0 .167 1 0 0] makefont
dup length dict begin {1 index /FID eq {pop pop} {def} ifelse} forall
currentdict end definefont pop
/MFshow {
   { dup 5 get 3 ge
     { 5 get 3 eq {gsave} {grestore} ifelse }
     {dup dup 0 get findfont exch 1 get scalefont setfont
     [ currentpoint ] exch dup 2 get 0 exch R dup 5 get 2 ne {dup dup 6
     get exch 4 get {show} {stringwidth pop 0 R} ifelse }if dup 5 get 0 eq
     {dup 3 get {2 get neg 0 exch R pop} {pop aload pop M} ifelse} {dup 5
     get 1 eq {dup 2 get exch dup 3 get exch 6 get stringwidth pop -2 div
     dup 0 R} {dup 6 get stringwidth pop -2 div 0 R 6 get
     show 2 index {aload pop M neg 3 -1 roll neg R pop pop} {pop pop pop
     pop aload pop M} ifelse }ifelse }ifelse }
     ifelse }
   forall} bind def
/MFwidth {0 exch {dup 3 get{dup dup 0 get findfont exch 1 get scalefont
     setfont 6 get stringwidth pop add} {pop} ifelse} forall} bind def
/MLshow { currentpoint stroke M
  0 exch R MFshow } bind def
/MRshow { currentpoint stroke M
  exch dup MFwidth neg 3 -1 roll R MFshow } def
/MCshow { currentpoint stroke M
  exch dup MFwidth -2 div 3 -1 roll R MFshow } def
end
%%EndProlog
gnudict begin
gsave
50 50 translate
0.050 0.050 scale
0 setgray
newpath
(Helvetica) findfont 240 scalefont setfont
1.000 UL
LTb
984 480 M
63 0 V
9345 0 R
-63 0 V
stroke
840 480 M
[ [(Helvetica) 240.0 0.0 true true 0 (-1)]
] -80.0 MRshow
1.000 UL
LTb
984 1159 M
63 0 V
9345 0 R
-63 0 V
stroke
840 1159 M
[ [(Helvetica) 240.0 0.0 true true 0 (-0.8)]
] -80.0 MRshow
1.000 UL
LTb
984 1838 M
63 0 V
9345 0 R
-63 0 V
stroke
840 1838 M
[ [(Helvetica) 240.0 0.0 true true 0 (-0.6)]
] -80.0 MRshow
1.000 UL
LTb
984 2518 M
63 0 V
9345 0 R
-63 0 V
stroke
840 2518 M
[ [(Helvetica) 240.0 0.0 true true 0 (-0.4)]
] -80.0 MRshow
1.000 UL
LTb
984 3197 M
63 0 V
9345 0 R
-63 0 V
stroke
840 3197 M
[ [(Helvetica) 240.0 0.0 true true 0 (-0.2)]
] -80.0 MRshow
1.000 UL
LTb
984 3876 M
63 0 V
9345 0 R
-63 0 V
stroke
840 3876 M
[ [(Helvetica) 240.0 0.0 true true 0 ( 0)]
] -80.0 MRshow
1.000 UL
LTb
984 4555 M
63 0 V
9345 0 R
-63 0 V
stroke
840 4555 M
[ [(Helvetica) 240.0 0.0 true true 0 ( 0.2)]
] -80.0 MRshow
1.000 UL
LTb
984 5234 M
63 0 V
9345 0 R
-63 0 V
stroke
840 5234 M
[ [(Helvetica) 240.0 0.0 true true 0 ( 0.4)]
] -80.0 MRshow
1.000 UL
LTb
984 5914 M
63 0 V
9345 0 R
-63 0 V
stroke
840 5914 M
[ [(Helvetica) 240.0 0.0 true true 0 ( 0.6)]
] -80.0 MRshow
1.000 UL
LTb
984 6593 M
63 0 V
9345 0 R
-63 0 V
stroke
840 6593 M
[ [(Helvetica) 240.0 0.0 true true 0 ( 0.8)]
] -80.0 MRshow
1.000 UL
LTb
984 7272 M
63 0 V
9345 0 R
-63 0 V
stroke
840 7272 M
[ [(Helvetica) 240.0 0.0 true true 0 ( 1)]
] -80.0 MRshow
1.000 UL
LTb
984 480 M
0 63 V
0 6729 R
0 -63 V
stroke
984 240 M
[ [(Helvetica) 240.0 0.0 true true 0 (-6)]
] -80.0 MCshow
1.000 UL
LTb
2552 480 M
0 63 V
0 6729 R
0 -63 V
stroke
2552 240 M
[ [(Helvetica) 240.0 0.0 true true 0 (-4)]
] -80.0 MCshow
1.000 UL
LTb
4120 480 M
0 63 V
0 6729 R
0 -63 V
stroke
4120 240 M
[ [(Helvetica) 240.0 0.0 true true 0 (-2)]
] -80.0 MCshow
1.000 UL
LTb
5688 480 M
0 63 V
0 6729 R
0 -63 V
stroke
5688 240 M
[ [(Helvetica) 240.0 0.0 true true 0 ( 0)]
] -80.0 MCshow
1.000 UL
LTb
7256 480 M
0 63 V
0 6729 R
0 -63 V
stroke
7256 240 M
[ [(Helvetica) 240.0 0.0 true true 0 ( 2)]
] -80.0 MCshow
1.000 UL
LTb
8824 480 M
0 63 V
0 6729 R
0 -63 V
stroke
8824 240 M
[ [(Helvetica) 240.0 0.0 true true 0 ( 4)]
] -80.0 MCshow
1.000 UL
LTb
10392 480 M
0 63 V
0 6729 R
0 -63 V
stroke
10392 240 M
[ [(Helvetica) 240.0 0.0 true true 0 ( 6)]
] -80.0 MCshow
1.000 UL
LTb
1.000 UL
LTb
984 480 M
9408 0 V
0 6792 V
-9408 0 V
984 480 L
1.000 UP
1.000 UL
LT2
LTb
9321 7089 M
[ [(Helvetica) 240.0 0.0 true true 0 (sin\(x\))]
] -80.0 MRshow
LT2
9465 7089 M
639 0 V
-8336 44 R
49 53 V
49 41 V
49 28 V
49 15 V
25 2 V
24 -1 V
25 -4 V
24 -8 V
25 -11 V
24 -14 V
25 -18 V
24 -20 V
25 -24 V
24 -28 V
25 -30 V
24 -33 V
25 -37 V
24 -40 V
25 -43 V
24 -46 V
25 -48 V
24 -52 V
25 -55 V
24 -57 V
25 -60 V
24 -63 V
25 -66 V
24 -68 V
25 -71 V
24 -73 V
25 -75 V
24 -78 V
25 -80 V
24 -82 V
25 -84 V
24 -86 V
25 -88 V
24 -90 V
25 -91 V
24 -94 V
25 -94 V
24 -96 V
25 -98 V
24 -99 V
25 -100 V
24 -101 V
25 -102 V
24 -103 V
25 -103 V
24 -104 V
25 -105 V
24 -106 V
25 -105 V
24 -106 V
25 -106 V
24 -106 V
25 -106 V
24 -106 V
25 -106 V
24 -105 V
25 -105 V
24 -104 V
25 -104 V
24 -103 V
25 -102 V
24 -101 V
25 -99 V
24 -99 V
25 -98 V
24 -96 V
25 -94 V
24 -93 V
25 -92 V
24 -90 V
25 -87 V
24 -86 V
25 -84 V
24 -82 V
25 -80 V
24 -78 V
25 -75 V
24 -73 V
25 -70 V
24 -68 V
25 -66 V
24 -62 V
25 -60 V
24 -58 V
25 -54 V
24 -52 V
25 -48 V
24 -46 V
25 -43 V
24 -39 V
25 -37 V
24 -33 V
25 -30 V
24 -27 V
25 -24 V
24 -21 V
25 -17 V
24 -14 V
stroke
4365 503 M
25 -11 V
24 -7 V
12 -2 V
13 -2 V
12 -1 V
12 0 V
12 1 V
13 2 V
12 2 V
12 4 V
25 9 V
24 12 V
25 16 V
24 19 V
25 22 V
24 26 V
25 28 V
24 32 V
25 35 V
24 38 V
25 42 V
24 44 V
25 47 V
24 50 V
25 53 V
24 56 V
25 59 V
24 62 V
25 64 V
24 66 V
25 70 V
24 71 V
25 75 V
24 76 V
25 79 V
24 81 V
25 83 V
24 85 V
25 87 V
24 89 V
25 91 V
24 92 V
25 94 V
24 95 V
25 97 V
24 98 V
25 99 V
24 101 V
25 101 V
24 103 V
25 103 V
24 104 V
25 105 V
24 105 V
25 105 V
24 106 V
25 106 V
24 106 V
25 106 V
24 106 V
25 106 V
24 105 V
25 105 V
24 105 V
25 104 V
24 103 V
25 103 V
24 101 V
25 101 V
24 99 V
25 98 V
24 97 V
25 95 V
24 94 V
25 92 V
24 91 V
25 89 V
24 87 V
25 85 V
24 83 V
25 81 V
24 79 V
25 76 V
24 75 V
25 71 V
24 70 V
25 66 V
24 64 V
25 62 V
24 59 V
25 56 V
24 53 V
25 50 V
24 47 V
25 44 V
24 42 V
25 38 V
24 35 V
49 60 V
49 48 V
49 35 V
49 21 V
25 6 V
24 3 V
stroke
6913 7272 M
25 -1 V
24 -4 V
25 -7 V
24 -11 V
25 -14 V
24 -17 V
25 -21 V
24 -24 V
25 -27 V
24 -30 V
25 -33 V
24 -37 V
25 -39 V
24 -43 V
25 -46 V
24 -48 V
25 -52 V
24 -54 V
25 -58 V
24 -60 V
25 -62 V
24 -66 V
25 -68 V
24 -70 V
25 -73 V
24 -75 V
25 -78 V
24 -80 V
25 -82 V
24 -84 V
25 -86 V
24 -87 V
25 -90 V
24 -92 V
25 -93 V
24 -94 V
25 -96 V
24 -98 V
25 -99 V
24 -99 V
25 -101 V
24 -102 V
25 -103 V
24 -104 V
25 -104 V
24 -105 V
25 -105 V
24 -106 V
25 -106 V
24 -106 V
25 -106 V
24 -106 V
25 -106 V
24 -105 V
25 -106 V
24 -105 V
25 -104 V
24 -103 V
25 -103 V
24 -102 V
25 -101 V
24 -100 V
25 -99 V
24 -98 V
25 -96 V
24 -94 V
25 -94 V
24 -91 V
25 -90 V
24 -88 V
25 -86 V
24 -84 V
25 -82 V
24 -80 V
25 -78 V
24 -75 V
25 -73 V
24 -71 V
25 -68 V
24 -66 V
25 -63 V
24 -60 V
25 -57 V
24 -55 V
25 -52 V
24 -48 V
25 -46 V
24 -43 V
25 -40 V
24 -37 V
25 -33 V
24 -30 V
25 -28 V
24 -24 V
25 -20 V
24 -18 V
25 -14 V
24 -11 V
12 -4 V
13 -4 V
12 -2 V
12 -2 V
12 -1 V
13 0 V
stroke
9388 480 M
12 1 V
12 1 V
25 6 V
24 9 V
25 12 V
24 16 V
25 19 V
24 22 V
25 25 V
24 28 V
1.000 UL
LTb
984 480 M
9408 0 V
0 6792 V
-9408 0 V
984 480 L
1.000 UP
stroke
grestore
end
showpage
%%Trailer
%%DocumentFonts: Helvetica
